61441	f001		vector-square
61442	f002		access-point
61443	f003		access-point-network
61444	f004		account
61445	f005		account-alert
61446	f006		account-box
61447	f007		account-box-outline
61448	f008		account-check
61449	f009		account-circle
61450	f00a		account-convert
61451	f00b		account-key
61452	f00c		account-location
61453	f00d		account-minus
61454	f00e		account-multiple
61455	f00f		account-multiple-outline
61456	f010		account-multiple-plus
61457	f011		account-network
61458	f012		account-off
61459	f013		account-outline
61460	f014		account-plus
61461	f015		account-remove
61462	f016		account-search
61463	f017		account-star
61464	f018		orbit
61465	f019		account-switch
61466	f01a		adjust
61467	f01b		air-conditioner
61468	f01c		airballoon
61469	f01d		airplane
61470	f01e		airplane-off
61471	f01f		airplay
61472	f020		alarm
61473	f021		alarm-check
61474	f022		alarm-multiple
61475	f023		alarm-off
61476	f024		alarm-plus
61477	f025		album
61478	f026		alert
61479	f027		alert-box
61480	f028		alert-circle
61481	f029		alert-octagon
61482	f02a		alert-outline
61483	f02b		alpha
61484	f02c		alphabetical
61485	f02d		amazon
61486	f02e		amazon-drive
61487	f02f		ambulance
61488	f030		amplifier
61489	f031		anchor
61490	f032		android
61491	f033		android-debug-bridge
61492	f034		android-studio
61493	f035		apple
61494	f036		apple-finder
61495	f037		apple-ios
61496	f038		apple-icloud
61497	f039		apple-safari
61498	f03a		font-awesome
61499	f03b		apps
61500	f03c		archive
61501	f03d		arrange-bring-forward
61502	f03e		arrange-bring-to-front
61503	f03f		arrange-send-backward
61504	f040		arrange-send-to-back
61505	f041		arrow-all
61506	f042		arrow-bottom-left
61507	f043		arrow-bottom-right
61508	f044		arrow-collapse-all
61509	f045		arrow-down
61510	f046		arrow-down-thick
61511	f047		arrow-down-bold-circle
61512	f048		arrow-down-bold-circle-outline
61513	f049		arrow-down-bold-hexagon-outline
61514	f04a		arrow-down-drop-circle
61515	f04b		arrow-down-drop-circle-outline
61516	f04c		arrow-expand-all
61517	f04d		arrow-left
61518	f04e		arrow-left-thick
61519	f04f		arrow-left-bold-circle
61520	f050		arrow-left-bold-circle-outline
61521	f051		arrow-left-bold-hexagon-outline
61522	f052		arrow-left-drop-circle
61523	f053		arrow-left-drop-circle-outline
61524	f054		arrow-right
61525	f055		arrow-right-thick
61526	f056		arrow-right-bold-circle
61527	f057		arrow-right-bold-circle-outline
61528	f058		arrow-right-bold-hexagon-outline
61529	f059		arrow-right-drop-circle
61530	f05a		arrow-right-drop-circle-outline
61531	f05b		arrow-top-left
61532	f05c		arrow-top-right
61533	f05d		arrow-up
61534	f05e		arrow-up-thick
61535	f05f		arrow-up-bold-circle
61536	f060		arrow-up-bold-circle-outline
61537	f061		arrow-up-bold-hexagon-outline
61538	f062		arrow-up-drop-circle
61539	f063		arrow-up-drop-circle-outline
61540	f064		assistant
61541	f065		at
61542	f066		attachment
61543	f067		audiobook
61544	f068		auto-fix
61545	f069		auto-upload
61546	f06a		autorenew
61547	f06b		av-timer
61548	f06c		baby
61549	f06d		backburger
61550	f06e		backspace
61551	f06f		backup-restore
61552	f070		bank
61553	f071		barcode
61554	f072		barcode-scan
61555	f073		barley
61556	f074		barrel
61557	f075		basecamp
61558	f076		basket
61559	f077		basket-fill
61560	f078		basket-unfill
61561	f079		battery
61562	f07a		battery-10
61563	f07b		battery-20
61564	f07c		battery-30
61565	f07d		battery-40
61566	f07e		battery-50
61567	f07f		battery-60
61568	f080		battery-70
61569	f081		battery-80
61570	f082		battery-90
61571	f083		battery-alert
61572	f084		battery-charging
61573	f085		battery-charging-100
61574	f086		battery-charging-20
61575	f087		battery-charging-30
61576	f088		battery-charging-40
61577	f089		battery-charging-60
61578	f08a		battery-charging-80
61579	f08b		battery-charging-90
61580	f08c		battery-minus
61581	f08d		battery-negative
61582	f08e		battery-outline
61583	f08f		battery-plus
61584	f090		battery-positive
61585	f091		battery-unknown
61586	f092		beach
61587	f093		flask
61588	f094		flask-empty
61589	f095		flask-empty-outline
61590	f096		flask-outline
61591	f097		beats
61592	f098		beer
61593	f099		behance
61594	f09a		bell
61595	f09b		bell-off
61596	f09c		bell-outline
61597	f09d		bell-plus
61598	f09e		bell-ring
61599	f09f		bell-ring-outline
61600	f0a0		bell-sleep
61601	f0a1		beta
61602	f0a2		bible
61603	f0a3		bike
61604	f0a4		bing
61605	f0a5		binoculars
61606	f0a6		bio
61607	f0a7		biohazard
61608	f0a8		bitbucket
61609	f0a9		black-mesa
61610	f0aa		blackberry
61611	f0ab		blender
61612	f0ac		blinds
61613	f0ad		block-helper
61614	f0ae		blogger
61615	f0af		bluetooth
61616	f0b0		bluetooth-audio
61617	f0b1		bluetooth-connect
61618	f0b2		bluetooth-off
61619	f0b3		bluetooth-settings
61620	f0b4		bluetooth-transfer
61621	f0b5		blur
61622	f0b6		blur-linear
61623	f0b7		blur-off
61624	f0b8		blur-radial
61625	f0b9		bone
61626	f0ba		book
61627	f0bb		book-multiple
61628	f0bc		book-multiple-variant
61629	f0bd		book-open
61630	f0be		book-open-variant
61631	f0bf		book-variant
61632	f0c0		bookmark
61633	f0c1		bookmark-check
61634	f0c2		bookmark-music
61635	f0c3		bookmark-outline
61636	f0c4		bookmark-plus-outline
61637	f0c5		bookmark-plus
61638	f0c6		bookmark-remove
61639	f0c7		border-all
61640	f0c8		border-bottom
61641	f0c9		border-color
61642	f0ca		border-horizontal
61643	f0cb		border-inside
61644	f0cc		border-left
61645	f0cd		border-none
61646	f0ce		border-outside
61647	f0cf		border-right
61648	f0d0		border-style
61649	f0d1		border-top
61650	f0d2		border-vertical
61651	f0d3		bowling
61652	f0d4		box
61653	f0d5		box-cutter
61654	f0d6		briefcase
61655	f0d7		briefcase-check
61656	f0d8		briefcase-download
61657	f0d9		briefcase-upload
61658	f0da		brightness-1
61659	f0db		brightness-2
61660	f0dc		brightness-3
61661	f0dd		brightness-4
61662	f0de		brightness-5
61663	f0df		brightness-6
61664	f0e0		brightness-7
61665	f0e1		brightness-auto
61666	f0e2		broom
61667	f0e3		brush
61668	f0e4		bug
61669	f0e5		bulletin-board
61670	f0e6		bullhorn
61671	f0e7		bus
61672	f0e8		cached
61673	f0e9		cake
61674	f0ea		cake-layered
61675	f0eb		cake-variant
61676	f0ec		calculator
61677	f0ed		calendar
61678	f0ee		calendar-blank
61679	f0ef		calendar-check
61680	f0f0		calendar-clock
61681	f0f1		calendar-multiple
61682	f0f2		calendar-multiple-check
61683	f0f3		calendar-plus
61684	f0f4		calendar-remove
61685	f0f5		calendar-text
61686	f0f6		calendar-today
61687	f0f7		call-made
61688	f0f8		call-merge
61689	f0f9		call-missed
61690	f0fa		call-received
61691	f0fb		call-split
61692	f0fc		camcorder
61693	f0fd		camcorder-box
61694	f0fe		camcorder-box-off
61695	f0ff		camcorder-off
61696	f100		camera
61697	f101		camera-enhance
61698	f102		camera-front
61699	f103		camera-front-variant
61700	f104		camera-iris
61701	f105		camera-party-mode
61702	f106		camera-rear
61703	f107		camera-rear-variant
61704	f108		camera-switch
61705	f109		camera-timer
61706	f10a		candycane
61707	f10b		car
61708	f10c		car-battery
61709	f10d		car-connected
61710	f10e		car-wash
61711	f10f		carrot
61712	f110		cart
61713	f111		cart-outline
61714	f112		cart-plus
61715	f113		case-sensitive-alt
61716	f114		cash
61717	f115		cash-100
61718	f116		cash-multiple
61719	f117		cash-usd
61720	f118		cast
61721	f119		cast-connected
61722	f11a		castle
61723	f11b		cat
61724	f11c		cellphone
61725	f11d		cellphone-android
61726	f11e		cellphone-basic
61727	f11f		cellphone-dock
61728	f120		cellphone-iphone
61729	f121		cellphone-link
61730	f122		cellphone-link-off
61731	f123		cellphone-settings
61732	f124		certificate
61733	f125		chair-school
61734	f126		chart-arc
61735	f127		chart-areaspline
61736	f128		chart-bar
61737	f129		chart-histogram
61738	f12a		chart-line
61739	f12b		chart-pie
61740	f12c		check
61741	f12d		check-all
61742	f12e		checkbox-blank
61743	f12f		checkbox-blank-circle
61744	f130		checkbox-blank-circle-outline
61745	f131		checkbox-blank-outline
61746	f132		checkbox-marked
61747	f133		checkbox-marked-circle
61748	f134		checkbox-marked-circle-outline
61749	f135		checkbox-marked-outline
61750	f136		checkbox-multiple-blank
61751	f137		checkbox-multiple-blank-outline
61752	f138		checkbox-multiple-marked
61753	f139		checkbox-multiple-marked-outline
61754	f13a		checkerboard
61755	f13b		chemical-weapon
61756	f13c		chevron-double-down
61757	f13d		chevron-double-left
61758	f13e		chevron-double-right
61759	f13f		chevron-double-up
61760	f140		chevron-down
61761	f141		chevron-left
61762	f142		chevron-right
61763	f143		chevron-up
61764	f144		church
61765	f145		cisco-webex
61766	f146		city
61767	f147		clipboard
61768	f148		clipboard-account
61769	f149		clipboard-alert
61770	f14a		clipboard-arrow-down
61771	f14b		clipboard-arrow-left
61772	f14c		clipboard-check
61773	f14d		clipboard-outline
61774	f14e		clipboard-text
61775	f14f		clippy
61776	f150		clock
61777	f151		clock-end
61778	f152		clock-fast
61779	f153		clock-in
61780	f154		clock-out
61781	f155		clock-start
61782	f156		close
61783	f157		close-box
61784	f158		close-box-outline
61785	f159		close-circle
61786	f15a		close-circle-outline
61787	f15b		close-network
61788	f15c		close-octagon
61789	f15d		close-octagon-outline
61790	f15e		closed-caption
61791	f15f		cloud
61792	f160		cloud-check
61793	f161		cloud-circle
61794	f162		cloud-download
61795	f163		cloud-outline
61796	f164		cloud-off-outline
61797	f165		cloud-print
61798	f166		cloud-print-outline
61799	f167		cloud-upload
61800	f168		code-array
61801	f169		code-braces
61802	f16a		code-brackets
61803	f16b		code-equal
61804	f16c		code-greater-than
61805	f16d		code-greater-than-or-equal
61806	f16e		code-less-than
61807	f16f		code-less-than-or-equal
61808	f170		code-not-equal
61809	f171		code-not-equal-variant
61810	f172		code-parentheses
61811	f173		code-string
61812	f174		code-tags
61813	f175		codepen
61814	f176		coffee
61815	f177		coffee-to-go
61816	f178		coin
61817	f179		color-helper
61818	f17a		comment
61819	f17b		comment-account
61820	f17c		comment-account-outline
61821	f17d		comment-alert
61822	f17e		comment-alert-outline
61823	f17f		comment-check
61824	f180		comment-check-outline
61825	f181		comment-multiple-outline
61826	f182		comment-outline
61827	f183		comment-plus-outline
61828	f184		comment-processing
61829	f185		comment-processing-outline
61830	f186		comment-question-outline
61831	f187		comment-remove-outline
61832	f188		comment-text
61833	f189		comment-text-outline
61834	f18a		compare
61835	f18b		compass
61836	f18c		compass-outline
61837	f18d		console
61838	f18e		contact-mail
61839	f18f		content-copy
61840	f190		content-cut
61841	f191		content-duplicate
61842	f192		content-paste
61843	f193		content-save
61844	f194		content-save-all
61845	f195		contrast
61846	f196		contrast-box
61847	f197		contrast-circle
61848	f198		cookie
61849	f199		counter
61850	f19a		cow
61851	f19b		credit-card
61852	f19c		credit-card-multiple
61853	f19d		credit-card-scan
61854	f19e		crop
61855	f19f		crop-free
61856	f1a0		crop-landscape
61857	f1a1		crop-portrait
61858	f1a2		crop-square
61859	f1a3		crosshairs
61860	f1a4		crosshairs-gps
61861	f1a5		crown
61862	f1a6		cube
61863	f1a7		cube-outline
61864	f1a8		cube-send
61865	f1a9		cube-unfolded
61866	f1aa		cup
61867	f1ab		cup-water
61868	f1ac		currency-btc
61869	f1ad		currency-eur
61870	f1ae		currency-gbp
61871	f1af		currency-inr
61872	f1b0		currency-ngn
61873	f1b1		currency-rub
61874	f1b2		currency-try
61875	f1b3		currency-usd
61876	f1b4		cursor-default
61877	f1b5		cursor-default-outline
61878	f1b6		cursor-move
61879	f1b7		cursor-pointer
61880	f1b8		database
61881	f1b9		database-minus
61882	f1ba		database-plus
61883	f1bb		debug-step-into
61884	f1bc		debug-step-out
61885	f1bd		debug-step-over
61886	f1be		decimal-decrease
61887	f1bf		decimal-increase
61888	f1c0		delete
61889	f1c1		delete-variant
61890	f1c2		delta
61891	f1c3		deskphone
61892	f1c4		desktop-mac
61893	f1c5		desktop-tower
61894	f1c6		details
61895	f1c7		deviantart
61896	f1c8		diamond
61897	f1c9		creation
61898	f1ca		dice-1
61899	f1cb		dice-2
61900	f1cc		dice-3
61901	f1cd		dice-4
61902	f1ce		dice-5
61903	f1cf		dice-6
61904	f1d0		directions
61905	f1d1		disk-alert
61906	f1d2		disqus
61907	f1d3		disqus-outline
61908	f1d4		division
61909	f1d5		division-box
61910	f1d6		dns
61911	f1d7		domain
61912	f1d8		dots-horizontal
61913	f1d9		dots-vertical
61914	f1da		download
61915	f1db		drag
61916	f1dc		drag-horizontal
61917	f1dd		drag-vertical
61918	f1de		drawing
61919	f1df		drawing-box
61920	f1e0		dribbble
61921	f1e1		dribbble-box
61922	f1e2		drone
61923	f1e3		dropbox
61924	f1e4		drupal
61925	f1e5		duck
61926	f1e6		dumbbell
61927	f1e7		earth
61928	f1e8		earth-off
61929	f1e9		edge
61930	f1ea		eject
61931	f1eb		elevation-decline
61932	f1ec		elevation-rise
61933	f1ed		elevator
61934	f1ee		email
61935	f1ef		email-open
61936	f1f0		email-outline
61937	f1f1		email-secure
61938	f1f2		emoticon
61939	f1f3		emoticon-cool
61940	f1f4		emoticon-devil
61941	f1f5		emoticon-happy
61942	f1f6		emoticon-neutral
61943	f1f7		emoticon-poop
61944	f1f8		emoticon-sad
61945	f1f9		emoticon-tongue
61946	f1fa		engine
61947	f1fb		engine-outline
61948	f1fc		equal
61949	f1fd		equal-box
61950	f1fe		eraser
61951	f1ff		escalator
61952	f200		ethernet
61953	f201		uniF201
61954	f202		ethernet-cable-off
61955	f203		etsy
61956	f204		evernote
61957	f205		exclamation
61958	f206		exit-to-app
61959	f207		export
61960	f208		eye
61961	f209		eye-off
61962	f20a		eyedropper
61963	f20b		eyedropper-variant
61964	f20c		facebook
61965	f20d		facebook-box
61966	f20e		facebook-messenger
61967	f20f		factory
61968	f210		fan
61969	f211		fast-forward
61970	f212		fax
61971	f213		ferry
61972	f214		file
61973	f215		file-chart
61974	f216		file-check
61975	f217		file-cloud
61976	f218		file-delimited
61977	f219		file-document
61978	f21a		file-document-box
61979	f21b		file-excel
61980	f21c		file-excel-box
61981	f21d		file-export
61982	f21e		file-find
61983	f21f		file-image
61984	f220		file-import
61985	f221		file-lock
61986	f222		file-multiple
61987	f223		file-music
61988	f224		file-outline
61989	f225		file-pdf
61990	f226		file-pdf-box
61991	f227		file-powerpoint
61992	f228		file-powerpoint-box
61993	f229		file-presentation-box
61994	f22a		file-send
61995	f22b		file-video
61996	f22c		file-word
61997	f22d		file-word-box
61998	f22e		file-xml
61999	f22f		film
62000	f230		filmstrip
62001	f231		filmstrip-off
62002	f232		filter
62003	f233		filter-outline
62004	f234		filter-remove
62005	f235		filter-remove-outline
62006	f236		filter-variant
62007	f237		fingerprint
62008	f238		fire
62009	f239		firefox
62010	f23a		fish
62011	f23b		flag
62012	f23c		flag-checkered
62013	f23d		flag-outline
62014	f23e		flag-variant-outline
62015	f23f		flag-triangle
62016	f240		flag-variant
62017	f241		flash
62018	f242		flash-auto
62019	f243		flash-off
62020	f244		flashlight
62021	f245		flashlight-off
62022	f246		flattr
62023	f247		flip-to-back
62024	f248		flip-to-front
62025	f249		floppy
62026	f24a		flower
62027	f24b		folder
62028	f24c		folder-account
62029	f24d		folder-download
62030	f24e		folder-google-drive
62031	f24f		folder-image
62032	f250		folder-lock
62033	f251		folder-lock-open
62034	f252		folder-move
62035	f253		folder-multiple
62036	f254		folder-multiple-image
62037	f255		folder-multiple-outline
62038	f256		folder-outline
62039	f257		folder-plus
62040	f258		folder-remove
62041	f259		folder-upload
62042	f25a		food
62043	f25b		food-apple
62044	f25c		food-variant
62045	f25d		football
62046	f25e		football-australian
62047	f25f		football-helmet
62048	f260		format-align-center
62049	f261		format-align-justify
62050	f262		format-align-left
62051	f263		format-align-right
62052	f264		format-bold
62053	f265		format-clear
62054	f266		format-color-fill
62055	f267		format-float-center
62056	f268		format-float-left
62057	f269		format-float-none
62058	f26a		format-float-right
62059	f26b		format-header-1
62060	f26c		format-header-2
62061	f26d		format-header-3
62062	f26e		format-header-4
62063	f26f		format-header-5
62064	f270		format-header-6
62065	f271		format-header-decrease
62066	f272		format-header-equal
62067	f273		format-header-increase
62068	f274		format-header-pound
62069	f275		format-indent-decrease
62070	f276		format-indent-increase
62071	f277		format-italic
62072	f278		format-line-spacing
62073	f279		format-list-bulleted
62074	f27a		format-list-bulleted-type
62075	f27b		format-list-numbers
62076	f27c		format-paint
62077	f27d		format-paragraph
62078	f27e		format-quote-close
62079	f27f		format-size
62080	f280		format-strikethrough
62081	f281		format-strikethrough-variant
62082	f282		format-subscript
62083	f283		format-superscript
62084	f284		format-text
62085	f285		format-textdirection-l-to-r
62086	f286		format-textdirection-r-to-l
62087	f287		format-underline
62088	f288		format-wrap-inline
62089	f289		format-wrap-square
62090	f28a		format-wrap-tight
62091	f28b		format-wrap-top-bottom
62092	f28c		forum
62093	f28d		forward
62094	f28e		foursquare
62095	f28f		fridge
62096	f290		fridge-filled
62097	f291		fridge-filled-bottom
62098	f292		fridge-filled-top
62099	f293		fullscreen
62100	f294		fullscreen-exit
62101	f295		function
62102	f296		gamepad
62103	f297		gamepad-variant
62104	f298		gas-station
62105	f299		gate
62106	f29a		gauge
62107	f29b		gavel
62108	f29c		gender-female
62109	f29d		gender-male
62110	f29e		gender-male-female
62111	f29f		gender-transgender
62112	f2a0		ghost
62113	f2a1		gift
62114	f2a2		git
62115	f2a3		github-box
62116	f2a4		github-circle
62117	f2a5		glass-flute
62118	f2a6		glass-mug
62119	f2a7		glass-stange
62120	f2a8		glass-tulip
62121	f2a9		glassdoor
62122	f2aa		glasses
62123	f2ab		gmail
62124	f2ac		gnome
62125	f2ad		google
62126	f2ae		google-cardboard
62127	f2af		google-chrome
62128	f2b0		google-circles
62129	f2b1		google-circles-communities
62130	f2b2		google-circles-extended
62131	f2b3		google-circles-group
62132	f2b4		google-controller
62133	f2b5		google-controller-off
62134	f2b6		google-drive
62135	f2b7		google-earth
62136	f2b8		google-glass
62137	f2b9		google-nearby
62138	f2ba		google-pages
62139	f2bb		google-physical-web
62140	f2bc		google-play
62141	f2bd		google-plus
62142	f2be		google-plus-box
62143	f2bf		google-translate
62144	f2c0		google-wallet
62145	f2c1		grid
62146	f2c2		grid-off
62147	f2c3		group
62148	f2c4		guitar-electric
62149	f2c5		guitar-pick
62150	f2c6		guitar-pick-outline
62151	f2c7		hand-pointing-right
62152	f2c8		hanger
62153	f2c9		google-hangouts
62154	f2ca		harddisk
62155	f2cb		headphones
62156	f2cc		headphones-box
62157	f2cd		headphones-settings
62158	f2ce		headset
62159	f2cf		headset-dock
62160	f2d0		headset-off
62161	f2d1		heart
62162	f2d2		heart-box
62163	f2d3		heart-box-outline
62164	f2d4		heart-broken
62165	f2d5		heart-outline
62166	f2d6		help
62167	f2d7		help-circle
62168	f2d8		hexagon
62169	f2d9		hexagon-outline
62170	f2da		history
62171	f2db		hololens
62172	f2dc		home
62173	f2dd		home-modern
62174	f2de		home-variant
62175	f2df		hops
62176	f2e0		hospital
62177	f2e1		hospital-building
62178	f2e2		hospital-marker
62179	f2e3		hotel
62180	f2e4		houzz
62181	f2e5		houzz-box
62182	f2e6		human
62183	f2e7		human-child
62184	f2e8		human-male-female
62185	f2e9		image
62186	f2ea		image-album
62187	f2eb		image-area
62188	f2ec		image-area-close
62189	f2ed		image-broken
62190	f2ee		image-broken-variant
62191	f2ef		image-filter
62192	f2f0		image-filter-black-white
62193	f2f1		image-filter-center-focus
62194	f2f2		image-filter-center-focus-weak
62195	f2f3		image-filter-drama
62196	f2f4		image-filter-frames
62197	f2f5		image-filter-hdr
62198	f2f6		image-filter-none
62199	f2f7		image-filter-tilt-shift
62200	f2f8		image-filter-vintage
62201	f2f9		image-multiple
62202	f2fa		import
62203	f2fb		inbox-arrow-down
62204	f2fc		information
62205	f2fd		information-outline
62206	f2fe		instagram
62207	f2ff		instapaper
62208	f300		internet-explorer
62209	f301		invert-colors
62210	f302		jeepney
62211	f303		jira
62212	f304		jsfiddle
62213	f305		keg
62214	f306		key
62215	f307		key-change
62216	f308		key-minus
62217	f309		key-plus
62218	f30a		key-remove
62219	f30b		key-variant
62220	f30c		keyboard
62221	f30d		keyboard-backspace
62222	f30e		keyboard-caps
62223	f30f		keyboard-close
62224	f310		keyboard-off
62225	f311		keyboard-return
62226	f312		keyboard-tab
62227	f313		keyboard-variant
62228	f314		kodi
62229	f315		label
62230	f316		label-outline
62231	f317		lan
62232	f318		lan-connect
62233	f319		lan-disconnect
62234	f31a		lan-pending
62235	f31b		language-csharp
62236	f31c		language-css3
62237	f31d		language-html5
62238	f31e		language-javascript
62239	f31f		language-php
62240	f320		language-python
62241	f321		language-python-text
62242	f322		laptop
62243	f323		laptop-chromebook
62244	f324		laptop-mac
62245	f325		laptop-windows
62246	f326		lastfm
62247	f327		launch
62248	f328		layers
62249	f329		layers-off
62250	f32a		leaf
62251	f32b		led-off
62252	f32c		led-on
62253	f32d		led-outline
62254	f32e		led-variant-off
62255	f32f		led-variant-on
62256	f330		led-variant-outline
62257	f331		library
62258	f332		library-books
62259	f333		library-music
62260	f334		library-plus
62261	f335		lightbulb
62262	f336		lightbulb-outline
62263	f337		link
62264	f338		link-off
62265	f339		link-variant
62266	f33a		link-variant-off
62267	f33b		linkedin
62268	f33c		linkedin-box
62269	f33d		linux
62270	f33e		lock
62271	f33f		lock-open
62272	f340		lock-open-outline
62273	f341		lock-outline
62274	f342		login
62275	f343		logout
62276	f344		looks
62277	f345		loupe
62278	f346		lumx
62279	f347		magnet
62280	f348		magnet-on
62281	f349		magnify
62282	f34a		magnify-minus
62283	f34b		magnify-plus
62284	f34c		mail-ru
62285	f34d		map
62286	f34e		map-marker
62287	f34f		map-marker-circle
62288	f350		map-marker-multiple
62289	f351		map-marker-off
62290	f352		map-marker-radius
62291	f353		margin
62292	f354		markdown
62293	f355		marker-check
62294	f356		glass-cocktail
62295	f357		material-ui
62296	f358		math-compass
62297	f359		maxcdn
62298	f35a		medium
62299	f35b		memory
62300	f35c		menu
62301	f35d		menu-down
62302	f35e		menu-left
62303	f35f		menu-right
62304	f360		menu-up
62305	f361		message
62306	f362		message-alert
62307	f363		message-draw
62308	f364		message-image
62309	f365		message-outline
62310	f366		message-processing
62311	f367		message-reply
62312	f368		message-reply-text
62313	f369		message-text
62314	f36a		message-text-outline
62315	f36b		message-video
62316	f36c		microphone
62317	f36d		microphone-off
62318	f36e		microphone-outline
62319	f36f		microphone-settings
62320	f370		microphone-variant
62321	f371		microphone-variant-off
62322	f372		microsoft
62323	f373		minecraft
62324	f374		minus
62325	f375		minus-box
62326	f376		minus-circle
62327	f377		minus-circle-outline
62328	f378		minus-network
62329	f379		monitor
62330	f37a		monitor-multiple
62331	f37b		more
62332	f37c		motorbike
62333	f37d		mouse
62334	f37e		mouse-off
62335	f37f		mouse-variant
62336	f380		mouse-variant-off
62337	f381		movie
62338	f382		multiplication
62339	f383		multiplication-box
62340	f384		music-box
62341	f385		music-box-outline
62342	f386		music-circle
62343	f387		music-note
62344	f388		music-note-eighth
62345	f389		music-note-half
62346	f38a		music-note-off
62347	f38b		music-note-quarter
62348	f38c		music-note-sixteenth
62349	f38d		music-note-whole
62350	f38e		nature
62351	f38f		nature-people
62352	f390		navigation
62353	f391		needle
62354	f392		smoke-detector
62355	f393		thermostat
62356	f394		new-box
62357	f395		newspaper
62358	f396		nfc
62359	f397		nfc-tap
62360	f398		nfc-variant
62361	f399		nodejs
62362	f39a		note
62363	f39b		note-outline
62364	f39c		note-plus
62365	f39d		note-plus-outline
62366	f39e		note-text
62367	f39f		notification-clear-all
62368	f3a0		numeric
62369	f3a1		numeric-0-box
62370	f3a2		numeric-0-box-multiple-outline
62371	f3a3		numeric-0-box-outline
62372	f3a4		numeric-1-box
62373	f3a5		numeric-1-box-multiple-outline
62374	f3a6		numeric-1-box-outline
62375	f3a7		numeric-2-box
62376	f3a8		numeric-2-box-multiple-outline
62377	f3a9		numeric-2-box-outline
62378	f3aa		numeric-3-box
62379	f3ab		numeric-3-box-multiple-outline
62380	f3ac		numeric-3-box-outline
62381	f3ad		numeric-4-box
62382	f3ae		numeric-4-box-multiple-outline
62383	f3af		numeric-4-box-outline
62384	f3b0		numeric-5-box
62385	f3b1		numeric-5-box-multiple-outline
62386	f3b2		numeric-5-box-outline
62387	f3b3		numeric-6-box
62388	f3b4		numeric-6-box-multiple-outline
62389	f3b5		numeric-6-box-outline
62390	f3b6		numeric-7-box
62391	f3b7		numeric-7-box-multiple-outline
62392	f3b8		numeric-7-box-outline
62393	f3b9		numeric-8-box
62394	f3ba		numeric-8-box-multiple-outline
62395	f3bb		numeric-8-box-outline
62396	f3bc		numeric-9-box
62397	f3bd		numeric-9-box-multiple-outline
62398	f3be		numeric-9-box-outline
62399	f3bf		numeric-9-plus-box
62400	f3c0		numeric-9-plus-box-multiple-outline
62401	f3c1		numeric-9-plus-box-outline
62402	f3c2		nutrition
62403	f3c3		octagon
62404	f3c4		octagon-outline
62405	f3c5		odnoklassniki
62406	f3c6		office
62407	f3c7		oil
62408	f3c8		oil-temperature
62409	f3c9		omega
62410	f3ca		onedrive
62411	f3cb		open-in-app
62412	f3cc		open-in-new
62413	f3cd		openid
62414	f3ce		opera
62415	f3cf		ornament
62416	f3d0		ornament-variant
62417	f3d1		inbox-arrow-up
62418	f3d2		owl
62419	f3d3		package
62420	f3d4		package-down
62421	f3d5		package-up
62422	f3d6		package-variant
62423	f3d7		package-variant-closed
62424	f3d8		palette
62425	f3d9		palette-advanced
62426	f3da		panda
62427	f3db		pandora
62428	f3dc		panorama
62429	f3dd		panorama-fisheye
62430	f3de		panorama-horizontal
62431	f3df		panorama-vertical
62432	f3e0		panorama-wide-angle
62433	f3e1		paper-cut-vertical
62434	f3e2		paperclip
62435	f3e3		parking
62436	f3e4		pause
62437	f3e5		pause-circle
62438	f3e6		pause-circle-outline
62439	f3e7		pause-octagon
62440	f3e8		pause-octagon-outline
62441	f3e9		paw
62442	f3ea		pen
62443	f3eb		pencil
62444	f3ec		pencil-box
62445	f3ed		pencil-box-outline
62446	f3ee		pencil-lock
62447	f3ef		pencil-off
62448	f3f0		percent
62449	f3f1		pharmacy
62450	f3f2		phone
62451	f3f3		phone-bluetooth
62452	f3f4		phone-forward
62453	f3f5		phone-hangup
62454	f3f6		phone-in-talk
62455	f3f7		phone-incoming
62456	f3f8		phone-locked
62457	f3f9		phone-log
62458	f3fa		phone-missed
62459	f3fb		phone-outgoing
62460	f3fc		phone-paused
62461	f3fd		phone-settings
62462	f3fe		phone-voip
62463	f3ff		pi
62464	f400		pi-box
62465	f401		pig
62466	f402		pill
62467	f403		pin
62468	f404		pin-off
62469	f405		pine-tree
62470	f406		pine-tree-box
62471	f407		pinterest
62472	f408		pinterest-box
62473	f409		pizza
62474	f40a		play
62475	f40b		play-box-outline
62476	f40c		play-circle
62477	f40d		play-circle-outline
62478	f40e		play-pause
62479	f40f		play-protected-content
62480	f410		playlist-minus
62481	f411		playlist-play
62482	f412		playlist-plus
62483	f413		playlist-remove
62484	f414		playstation
62485	f415		plus
62486	f416		plus-box
62487	f417		plus-circle
62488	f418		plus-circle-multiple-outline
62489	f419		plus-circle-outline
62490	f41a		plus-network
62491	f41b		plus-one
62492	f41c		pocket
62493	f41d		pokeball
62494	f41e		polaroid
62495	f41f		poll
62496	f420		poll-box
62497	f421		polymer
62498	f422		popcorn
62499	f423		pound
62500	f424		pound-box
62501	f425		power
62502	f426		power-settings
62503	f427		power-socket
62504	f428		presentation
62505	f429		presentation-play
62506	f42a		printer
62507	f42b		printer-3d
62508	f42c		printer-alert
62509	f42d		professional-hexagon
62510	f42e		projector
62511	f42f		projector-screen
62512	f430		pulse
62513	f431		puzzle
62514	f432		qrcode
62515	f433		qrcode-scan
62516	f434		quadcopter
62517	f435		quality-high
62518	f436		quicktime
62519	f437		radar
62520	f438		radiator
62521	f439		radio
62522	f43a		radio-handheld
62523	f43b		radio-tower
62524	f43c		radioactive
62525	f43d		radiobox-blank
62526	f43e		radiobox-marked
62527	f43f		raspberrypi
62528	f440		ray-end
62529	f441		ray-end-arrow
62530	f442		ray-start
62531	f443		ray-start-arrow
62532	f444		ray-start-end
62533	f445		ray-vertex
62534	f446		lastpass
62535	f447		read
62536	f448		youtube-tv
62537	f449		receipt
62538	f44a		record
62539	f44b		record-rec
62540	f44c		recycle
62541	f44d		reddit
62542	f44e		redo
62543	f44f		redo-variant
62544	f450		refresh
62545	f451		regex
62546	f452		relative-scale
62547	f453		reload
62548	f454		remote
62549	f455		rename-box
62550	f456		repeat
62551	f457		repeat-off
62552	f458		repeat-once
62553	f459		replay
62554	f45a		reply
62555	f45b		reply-all
62556	f45c		reproduction
62557	f45d		resize-bottom-right
62558	f45e		responsive
62559	f45f		rewind
62560	f460		ribbon
62561	f461		road
62562	f462		road-variant
62563	f463		rocket
62564	f464		rotate-3d
62565	f465		rotate-left
62566	f466		rotate-left-variant
62567	f467		rotate-right
62568	f468		rotate-right-variant
62569	f469		router-wireless
62570	f46a		routes
62571	f46b		rss
62572	f46c		rss-box
62573	f46d		ruler
62574	f46e		run-fast
62575	f46f		sale
62576	f470		satellite
62577	f471		satellite-variant
62578	f472		scale
62579	f473		scale-bathroom
62580	f474		school
62581	f475		screen-rotation
62582	f476		screen-rotation-lock
62583	f477		screwdriver
62584	f478		script
62585	f479		sd
62586	f47a		seal
62587	f47b		seat-flat
62588	f47c		seat-flat-angled
62589	f47d		seat-individual-suite
62590	f47e		seat-legroom-extra
62591	f47f		seat-legroom-normal
62592	f480		seat-legroom-reduced
62593	f481		seat-recline-extra
62594	f482		seat-recline-normal
62595	f483		security
62596	f484		security-network
62597	f485		select
62598	f486		select-all
62599	f487		select-inverse
62600	f488		select-off
62601	f489		selection
62602	f48a		send
62603	f48b		server
62604	f48c		server-minus
62605	f48d		server-network
62606	f48e		server-network-off
62607	f48f		server-off
62608	f490		server-plus
62609	f491		server-remove
62610	f492		server-security
62611	f493		settings
62612	f494		settings-box
62613	f495		shape-plus
62614	f496		share
62615	f497		share-variant
62616	f498		shield
62617	f499		shield-outline
62618	f49a		shopping
62619	f49b		shopping-music
62620	f49c		shredder
62621	f49d		shuffle
62622	f49e		shuffle-disabled
62623	f49f		shuffle-variant
62624	f4a0		sigma
62625	f4a1		sign-caution
62626	f4a2		signal
62627	f4a3		silverware
62628	f4a4		silverware-fork
62629	f4a5		silverware-spoon
62630	f4a6		silverware-variant
62631	f4a7		sim
62632	f4a8		sim-alert
62633	f4a9		sim-off
62634	f4aa		sitemap
62635	f4ab		skip-backward
62636	f4ac		skip-forward
62637	f4ad		skip-next
62638	f4ae		skip-previous
62639	f4af		skype
62640	f4b0		skype-business
62641	f4b1		slack
62642	f4b2		sleep
62643	f4b3		sleep-off
62644	f4b4		smoking
62645	f4b5		smoking-off
62646	f4b6		snapchat
62647	f4b7		snowman
62648	f4b8		soccer
62649	f4b9		sofa
62650	f4ba		sort
62651	f4bb		sort-alphabetical
62652	f4bc		sort-ascending
62653	f4bd		sort-descending
62654	f4be		sort-numeric
62655	f4bf		sort-variant
62656	f4c0		soundcloud
62657	f4c1		source-fork
62658	f4c2		source-pull
62659	f4c3		speaker
62660	f4c4		speaker-off
62661	f4c5		speedometer
62662	f4c6		spellcheck
62663	f4c7		spotify
62664	f4c8		spotlight
62665	f4c9		spotlight-beam
62666	f4ca		square-inc
62667	f4cb		square-inc-cash
62668	f4cc		stack-overflow
62669	f4cd		stairs
62670	f4ce		star
62671	f4cf		star-circle
62672	f4d0		star-half
62673	f4d1		star-off
62674	f4d2		star-outline
62675	f4d3		steam
62676	f4d4		steering
62677	f4d5		step-backward
62678	f4d6		step-backward-2
62679	f4d7		step-forward
62680	f4d8		step-forward-2
62681	f4d9		stethoscope
62682	f4da		stocking
62683	f4db		stop
62684	f4dc		store
62685	f4dd		store-24-hour
62686	f4de		stove
62687	f4df		subway-variant
62688	f4e0		sunglasses
62689	f4e1		swap-horizontal
62690	f4e2		swap-vertical
62691	f4e3		swim
62692	f4e4		switch
62693	f4e5		sword
62694	f4e6		sync
62695	f4e7		sync-alert
62696	f4e8		sync-off
62697	f4e9		tab
62698	f4ea		tab-unselected
62699	f4eb		table
62700	f4ec		table-column-plus-after
62701	f4ed		table-column-plus-before
62702	f4ee		table-column-remove
62703	f4ef		table-column-width
62704	f4f0		table-edit
62705	f4f1		table-large
62706	f4f2		table-row-height
62707	f4f3		table-row-plus-after
62708	f4f4		table-row-plus-before
62709	f4f5		table-row-remove
62710	f4f6		tablet
62711	f4f7		tablet-android
62712	f4f8		tablet-ipad
62713	f4f9		tag
62714	f4fa		tag-faces
62715	f4fb		tag-multiple
62716	f4fc		tag-outline
62717	f4fd		tag-text-outline
62718	f4fe		target
62719	f4ff		taxi
62720	f500		teamviewer
62721	f501		telegram
62722	f502		television
62723	f503		television-guide
62724	f504		temperature-celsius
62725	f505		temperature-fahrenheit
62726	f506		temperature-kelvin
62727	f507		tennis
62728	f508		tent
62729	f509		terrain
62730	f50a		text-to-speech
62731	f50b		text-to-speech-off
62732	f50c		texture
62733	f50d		theater
62734	f50e		theme-light-dark
62735	f50f		thermometer
62736	f510		thermometer-lines
62737	f511		thumb-down
62738	f512		thumb-down-outline
62739	f513		thumb-up
62740	f514		thumb-up-outline
62741	f515		thumbs-up-down
62742	f516		ticket
62743	f517		ticket-account
62744	f518		ticket-confirmation
62745	f519		tie
62746	f51a		timelapse
62747	f51b		timer
62748	f51c		timer-10
62749	f51d		timer-3
62750	f51e		timer-off
62751	f51f		timer-sand
62752	f520		timetable
62753	f521		toggle-switch
62754	f522		toggle-switch-off
62755	f523		tooltip
62756	f524		tooltip-edit
62757	f525		tooltip-image
62758	f526		tooltip-outline
62759	f527		tooltip-outline-plus
62760	f528		tooltip-text
62761	f529		tooth-outline
62762	f52a		tor
62763	f52b		traffic-light
62764	f52c		train
62765	f52d		tram
62766	f52e		transcribe
62767	f52f		transcribe-close
62768	f530		transfer
62769	f531		tree
62770	f532		trello
62771	f533		trending-down
62772	f534		trending-neutral
62773	f535		trending-up
62774	f536		triangle
62775	f537		triangle-outline
62776	f538		trophy
62777	f539		trophy-award
62778	f53a		trophy-outline
62779	f53b		trophy-variant
62780	f53c		trophy-variant-outline
62781	f53d		truck
62782	f53e		truck-delivery
62783	f53f		tshirt-crew
62784	f540		tshirt-v
62785	f541		tumblr
62786	f542		tumblr-reblog
62787	f543		twitch
62788	f544		twitter
62789	f545		twitter-box
62790	f546		twitter-circle
62791	f547		twitter-retweet
62792	f548		ubuntu
62793	f549		umbraco
62794	f54a		umbrella
62795	f54b		umbrella-outline
62796	f54c		undo
62797	f54d		undo-variant
62798	f54e		unfold-less-horizontal
62799	f54f		unfold-more-horizontal
62800	f550		ungroup
62801	f551		untappd
62802	f552		upload
62803	f553		usb
62804	f554		vector-arrange-above
62805	f555		vector-arrange-below
62806	f556		vector-circle
62807	f557		vector-circle-variant
62808	f558		vector-combine
62809	f559		vector-curve
62810	f55a		vector-difference
62811	f55b		vector-difference-ab
62812	f55c		vector-difference-ba
62813	f55d		vector-intersection
62814	f55e		vector-line
62815	f55f		vector-point
62816	f560		vector-polygon
62817	f561		vector-polyline
62818	f562		vector-selection
62819	f563		vector-triangle
62820	f564		vector-union
62821	f565		verified
62822	f566		vibrate
62823	f567		video
62824	f568		video-off
62825	f569		video-switch
62826	f56a		view-agenda
62827	f56b		view-array
62828	f56c		view-carousel
62829	f56d		view-column
62830	f56e		view-dashboard
62831	f56f		view-day
62832	f570		view-grid
62833	f571		view-headline
62834	f572		view-list
62835	f573		view-module
62836	f574		view-quilt
62837	f575		view-stream
62838	f576		view-week
62839	f577		vimeo
62840	f578		venmo
62841	f579		vk
62842	f57a		vk-box
62843	f57b		vk-circle
62844	f57c		vlc
62845	f57d		voicemail
62846	f57e		volume-high
62847	f57f		volume-low
62848	f580		volume-medium
62849	f581		volume-off
62850	f582		vpn
62851	f583		walk
62852	f584		wallet
62853	f585		wallet-giftcard
62854	f586		wallet-membership
62855	f587		wallet-travel
62856	f588		wan
62857	f589		watch
62858	f58a		watch-export
62859	f58b		watch-import
62860	f58c		water
62861	f58d		water-off
62862	f58e		water-percent
62863	f58f		water-pump
62864	f590		weather-cloudy
62865	f591		weather-fog
62866	f592		weather-hail
62867	f593		weather-lightning
62868	f594		weather-night
62869	f595		weather-partlycloudy
62870	f596		weather-pouring
62871	f597		weather-rainy
62872	f598		weather-snowy
62873	f599		weather-sunny
62874	f59a		weather-sunset
62875	f59b		weather-sunset-down
62876	f59c		weather-sunset-up
62877	f59d		weather-windy
62878	f59e		weather-windy-variant
62879	f59f		web
62880	f5a0		webcam
62881	f5a1		weight
62882	f5a2		weight-kilogram
62883	f5a3		whatsapp
62884	f5a4		wheelchair-accessibility
62885	f5a5		white-balance-auto
62886	f5a6		white-balance-incandescent
62887	f5a7		white-balance-iridescent
62888	f5a8		white-balance-sunny
62889	f5a9		wifi
62890	f5aa		wifi-off
62891	f5ab		wii
62892	f5ac		wikipedia
62893	f5ad		window-close
62894	f5ae		window-closed
62895	f5af		window-maximize
62896	f5b0		window-minimize
62897	f5b1		window-open
62898	f5b2		window-restore
62899	f5b3		windows
62900	f5b4		wordpress
62901	f5b5		worker
62902	f5b6		wrap
62903	f5b7		wrench
62904	f5b8		wunderlist
62905	f5b9		xbox
62906	f5ba		xbox-controller
62907	f5bb		xbox-controller-off
62908	f5bc		xda
62909	f5bd		xing
62910	f5be		xing-box
62911	f5bf		xing-circle
62912	f5c0		xml
62913	f5c1		yeast
62914	f5c2		yelp
62915	f5c3		youtube
62916	f5c4		zip-box
62917	f5c5		surround-sound
62918	f5c6		vector-rectangle
62919	f5c7		playlist-check
62920	f5c8		format-line-style
62921	f5c9		format-line-weight
62922	f5ca		translate
62923	f5cb		voice
62924	f5cc		opacity
62925	f5cd		near-me
62926	f5ce		clock-alert
62927	f5cf		human-pregnant
62928	f5d0		sticker
62929	f5d1		scale-balance
62930	f5d2		account-card-details
62931	f5d3		account-multiple-minus
62932	f5d4		airplane-landing
62933	f5d5		airplane-takeoff
62934	f5d6		alert-circle-outline
62935	f5d7		altimeter
62936	f5d8		animation
62937	f5d9		book-minus
62938	f5da		book-open-page-variant
62939	f5db		book-plus
62940	f5dc		boombox
62941	f5dd		bullseye
62942	f5de		comment-remove
62943	f5df		camera-off
62944	f5e0		check-circle
62945	f5e1		check-circle-outline
62946	f5e2		candle
62947	f5e3		chart-bubble
62948	f5e4		credit-card-off
62949	f5e5		cup-off
62950	f5e6		copyright
62951	f5e7		cursor-text
62952	f5e8		delete-forever
62953	f5e9		delete-sweep
62954	f5ea		dice-d20
62955	f5eb		dice-d4
62956	f5ec		dice-d6
62957	f5ed		dice-d8
62958	f5ee		disk
62959	f5ef		email-open-outline
62960	f5f0		email-variant
62961	f5f1		ev-station
62962	f5f2		food-fork-drink
62963	f5f3		food-off
62964	f5f4		format-title
62965	f5f5		google-maps
62966	f5f6		heart-pulse
62967	f5f7		highway
62968	f5f8		home-map-marker
62969	f5f9		incognito
62970	f5fa		kettle
62971	f5fb		lock-plus
62972	f5fc		login-variant
62973	f5fd		logout-variant
62974	f5fe		music-note-bluetooth
62975	f5ff		music-note-bluetooth-off
62976	f600		page-first
62977	f601		page-last
62978	f602		phone-classic
62979	f603		priority-high
62980	f604		priority-low
62981	f605		qqchat
62982	f606		pool
62983	f607		rounded-corner
62984	f608		rowing
62985	f609		saxophone
62986	f60a		signal-variant
62987	f60b		stack-exchange
62988	f60c		subdirectory-arrow-left
62989	f60d		subdirectory-arrow-right
62990	f60e		textbox
62991	f60f		violin
62992	f610		visualstudio
62993	f611		wechat
62994	f612		watermark
62995	f613		file-hidden
62996	f614		application
62997	f615		arrow-collapse
62998	f616		arrow-expand
62999	f617		bowl
63000	f618		bridge
63001	f619		buffer
63002	f61a		chip
63003	f61b		content-save-settings
63004	f61c		dialpad
63005	f61d		dictionary
63006	f61e		format-horizontal-align-center
63007	f61f		format-horizontal-align-left
63008	f620		format-horizontal-align-right
63009	f621		format-vertical-align-bottom
63010	f622		format-vertical-align-center
63011	f623		format-vertical-align-top
63012	f624		hackernews
63013	f625		help-circle-outline
63014	f626		json
63015	f627		lambda
63016	f628		matrix
63017	f629		meteor
63018	f62a		mixcloud
63019	f62b		sigma-lower
63020	f62c		source-branch
63021	f62d		source-merge
63022	f62e		tune
63023	f62f		webhook
63024	f630		account-settings
63025	f631		account-settings-variant
63026	f632		apple-keyboard-caps
63027	f633		apple-keyboard-command
63028	f634		apple-keyboard-control
63029	f635		apple-keyboard-option
63030	f636		apple-keyboard-shift
63031	f637		box-shadow
63032	f638		cards
63033	f639		cards-outline
63034	f63a		cards-playing-outline
63035	f63b		checkbox-multiple-blank-circle
63036	f63c		checkbox-multiple-blank-circle-outline
63037	f63d		checkbox-multiple-marked-circle
63038	f63e		checkbox-multiple-marked-circle-outline
63039	f63f		cloud-sync
63040	f640		collage
63041	f641		directions-fork
63042	f642		eraser-variant
63043	f643		face
63044	f644		face-profile
63045	f645		file-tree
63046	f646		format-annotation-plus
63047	f647		gas-cylinder
63048	f648		grease-pencil
63049	f649		human-female
63050	f64a		human-greeting
63051	f64b		human-handsdown
63052	f64c		human-handsup
63053	f64d		human-male
63054	f64e		information-variant
63055	f64f		lead-pencil
63056	f650		map-marker-minus
63057	f651		map-marker-plus
63058	f652		marker
63059	f653		message-plus
63060	f654		microscope
63061	f655		move-resize
63062	f656		move-resize-variant
63063	f657		paw-off
63064	f658		phone-minus
63065	f659		phone-plus
63066	f65a		pot
63067	f65b		pot-mix
63068	f65c		serial-port
63069	f65d		shape-circle-plus
63070	f65e		shape-polygon-plus
63071	f65f		shape-rectangle-plus
63072	f660		shape-square-plus
63073	f661		skip-next-circle
63074	f662		skip-next-circle-outline
63075	f663		skip-previous-circle
63076	f664		skip-previous-circle-outline
63077	f665		spray
63078	f666		stop-circle
63079	f667		stop-circle-outline
63080	f668		test-tube
63081	f669		text-shadow
63082	f66a		tune-vertical
63083	f66b		cart-off
63084	f66c		chart-gantt
63085	f66d		chart-scatterplot-hexbin
63086	f66e		chart-timeline
63087	f66f		discord
63088	f670		file-restore
63089	f671		language-c
63090	f672		language-cpp
63091	f673		xaml
63092	f674		bandcamp
63093	f675		credit-card-plus
63094	f676		itunes
63095	f677		bow-tie
63096	f678		calendar-range
63097	f679		currency-usd-off
63098	f67a		flash-red-eye
63099	f67b		oar
63100	f67c		piano
63101	f67d		weather-lightning-rainy
63102	f67e		weather-snowy-rainy
63103	f67f		yin-yang
63104	f680		tower-beach
63105	f681		tower-fire
63106	f682		delete-circle
63107	f683		dna
63108	f684		hamburger
63109	f685		gondola
63110	f686		inbox
63111	f687		reorder-horizontal
63112	f688		reorder-vertical
63113	f689		security-home
63114	f68a		tag-heart
63115	f68b		skull
63116	f68c		solid
63117	f68d		alarm-snooze
63118	f68e		baby-buggy
63119	f68f		beaker
63120	f690		bomb
63121	f691		calendar-question
63122	f692		camera-burst
63123	f693		code-tags-check
63124	f694		coins
63125	f695		crop-rotate
63126	f696		developer-board
63127	f697		do-not-disturb
63128	f698		do-not-disturb-off
63129	f699		douban
63130	f69a		emoticon-dead
63131	f69b		emoticon-excited
63132	f69c		folder-star
63133	f69d		format-color-text
63134	f69e		format-section
63135	f69f		gradient
63136	f6a0		home-outline
63137	f6a1		message-bulleted
63138	f6a2		message-bulleted-off
63139	f6a3		nuke
63140	f6a4		power-plug
63141	f6a5		power-plug-off
63142	f6a6		publish
63143	f6a7		restore
63144	f6a8		robot
63145	f6a9		format-rotate-90
63146	f6aa		scanner
63147	f6ab		subway
63148	f6ac		timer-sand-empty
63149	f6ad		transit-transfer
63150	f6ae		unity
63151	f6af		update
63152	f6b0		watch-vibrate
63153	f6b1		angular
63154	f6b2		dolby
63155	f6b3		emby
63156	f6b4		lamp
63157	f6b5		menu-down-outline
63158	f6b6		menu-up-outline
63159	f6b7		note-multiple
63160	f6b8		note-multiple-outline
63161	f6b9		plex
63162	f6ba		plane-shield
63163	f6bb		account-edit
63164	f6bc		alert-decagram
63165	f6bd		all-inclusive
63166	f6be		angularjs
63167	f6bf		arrow-down-box
63168	f6c0		arrow-left-box
63169	f6c1		arrow-right-box
63170	f6c2		arrow-up-box
63171	f6c3		asterisk
63172	f6c4		bomb-off
63173	f6c5		bootstrap
63174	f6c6		cards-variant
63175	f6c7		clipboard-flow
63176	f6c8		close-outline
63177	f6c9		coffee-outline
63178	f6ca		contacts
63179	f6cb		delete-empty
63180	f6cc		earth-box
63181	f6cd		earth-box-off
63182	f6ce		email-alert
63183	f6cf		eye-outline
63184	f6d0		eye-off-outline
63185	f6d1		fast-forward-outline
63186	f6d2		feather
63187	f6d3		find-replace
63188	f6d4		flash-outline
63189	f6d5		format-font
63190	f6d6		format-page-break
63191	f6d7		format-pilcrow
63192	f6d8		garage
63193	f6d9		garage-open
63194	f6da		github-face
63195	f6db		google-keep
63196	f6dc		google-photos
63197	f6dd		heart-half-full
63198	f6de		heart-half
63199	f6df		heart-half-outline
63200	f6e0		hexagon-multiple
63201	f6e1		hook
63202	f6e2		hook-off
63203	f6e3		infinity
63204	f6e4		language-swift
63205	f6e5		language-typescript
63206	f6e6		laptop-off
63207	f6e7		lightbulb-on
63208	f6e8		lightbulb-on-outline
63209	f6e9		lock-pattern
63210	f6ea		loop
63211	f6eb		magnify-minus-outline
63212	f6ec		magnify-plus-outline
63213	f6ed		mailbox
63214	f6ee		medical-bag
63215	f6ef		message-settings
63216	f6f0		message-settings-variant
63217	f6f1		minus-box-outline
63218	f6f2		network
63219	f6f3		download-network
63220	f6f4		help-network
63221	f6f5		upload-network
63222	f6f6		npm
63223	f6f7		nut
63224	f6f8		octagram
63225	f6f9		page-layout-body
63226	f6fa		page-layout-footer
63227	f6fb		page-layout-header
63228	f6fc		page-layout-sidebar-left
63229	f6fd		page-layout-sidebar-right
63230	f6fe		pencil-circle
63231	f6ff		pentagon
63232	f700		pentagon-outline
63233	f701		pillar
63234	f702		pistol
63235	f703		plus-box-outline
63236	f704		plus-outline
63237	f705		prescription
63238	f706		printer-settings
63239	f707		react
63240	f708		restart
63241	f709		rewind-outline
63242	f70a		rhombus
63243	f70b		rhombus-outline
63244	f70c		robot-vacuum
63245	f70d		run
63246	f70e		search-web
63247	f70f		shovel
63248	f710		shovel-off
63249	f711		signal-2g
63250	f712		signal-3g
63251	f713		signal-4g
63252	f714		signal-hspa
63253	f715		signal-hspa-plus
63254	f716		snowflake
63255	f717		source-commit
63256	f718		source-commit-end
63257	f719		source-commit-end-local
63258	f71a		source-commit-local
63259	f71b		source-commit-next-local
63260	f71c		source-commit-start
63261	f71d		source-commit-start-next-local
63262	f71e		speaker-wireless
63263	f71f		stadium
63264	f720		svg
63265	f721		tag-plus
63266	f722		tag-remove
63267	f723		ticket-percent
63268	f724		tilde
63269	f725		treasure-chest
63270	f726		truck-trailer
63271	f727		view-parallel
63272	f728		view-sequential
63273	f729		washing-machine
63274	f72a		webpack
63275	f72b		widgets
63276	f72c		wiiu
63277	f72d		arrow-down-bold
63278	f72e		arrow-down-bold-box
63279	f72f		arrow-down-bold-box-outline
63280	f730		arrow-left-bold
63281	f731		arrow-left-bold-box
63282	f732		arrow-left-bold-box-outline
63283	f733		arrow-right-bold
63284	f734		arrow-right-bold-box
63285	f735		arrow-right-bold-box-outline
63286	f736		arrow-up-bold
63287	f737		arrow-up-bold-box
63288	f738		arrow-up-bold-box-outline
63289	f739		cancel
63290	f73a		file-account
63291	f73b		gesture-double-tap
63292	f73c		gesture-swipe-down
63293	f73d		gesture-swipe-left
63294	f73e		gesture-swipe-right
63295	f73f		gesture-swipe-up
63296	f740		gesture-tap
63297	f741		gesture-two-double-tap
63298	f742		gesture-two-tap
63299	f743		humble-bundle
63300	f744		kickstarter
63301	f745		netflix
63302	f746		onenote
63303	f747		periscope
63304	f748		uber
63305	f749		vector-radius
63306	f74a		xbox-controller-battery-alert
63307	f74b		xbox-controller-battery-empty
63308	f74c		xbox-controller-battery-full
63309	f74d		xbox-controller-battery-low
63310	f74e		xbox-controller-battery-medium
63311	f74f		xbox-controller-battery-unknown
63312	f750		clipboard-plus
63313	f751		file-plus
63314	f752		format-align-bottom
63315	f753		format-align-middle
63316	f754		format-align-top
63317	f755		format-list-checks
63318	f756		format-quote-open
63319	f757		grid-large
63320	f758		heart-off
63321	f759		music
63322	f75a		music-off
63323	f75b		tab-plus
63324	f75c		volume-plus
63325	f75d		volume-minus
63326	f75e		volume-mute
63327	f75f		unfold-less-vertical
63328	f760		unfold-more-vertical
63329	f761		taco
63330	f762		square-outline
63331	f763		square
63332	f764		circle
63333	f765		circle-outline
63334	f766		alert-octagram
63335	f767		atom
63336	f768		ceiling-light
63337	f769		chart-bar-stacked
63338	f76a		chart-line-stacked
63339	f76b		decagram
63340	f76c		decagram-outline
63341	f76d		dice-multiple
63342	f76e		dice-d10
63343	f76f		folder-open
63344	f770		guitar-acoustic
63345	f771		loading
63346	f772		lock-reset
63347	f773		ninja
63348	f774		octagram-outline
63349	f775		pencil-circle-outline
63350	f776		selection-off
63351	f777		set-all
63352	f778		set-center
63353	f779		set-center-right
63354	f77a		set-left
63355	f77b		set-left-center
63356	f77c		set-left-right
63357	f77d		set-none
63358	f77e		set-right
63359	f77f		shield-half-full
63360	f780		sign-direction
63361	f781		sign-text
63362	f782		signal-off
63363	f783		square-root
63364	f784		sticker-emoji
63365	f785		summit
63366	f786		sword-cross
63367	f787		truck-fast
63368	f788		yammer
63369	f789		cast-off
63370	f78a		help-box
63371	f78b		timer-sand-full
63372	f78c		waves
63373	f78d		alarm-bell
63374	f78e		alarm-light
63375	f78f		android-head
63376	f790		approval
63377	f791		arrow-collapse-down
63378	f792		arrow-collapse-left
63379	f793		arrow-collapse-right
63380	f794		arrow-collapse-up
63381	f795		arrow-expand-down
63382	f796		arrow-expand-left
63383	f797		arrow-expand-right
63384	f798		arrow-expand-up
63385	f799		book-secure
63386	f79a		book-unsecure
63387	f79b		bus-articulated-end
63388	f79c		bus-articulated-front
63389	f79d		bus-double-decker
63390	f79e		bus-school
63391	f79f		bus-side
63392	f7a0		camera-gopro
63393	f7a1		camera-metering-center
63394	f7a2		camera-metering-matrix
63395	f7a3		camera-metering-partial
63396	f7a4		camera-metering-spot
63397	f7a5		cannabis
63398	f7a6		car-convertible
63399	f7a7		car-estate
63400	f7a8		car-hatchback
63401	f7a9		car-pickup
63402	f7aa		car-side
63403	f7ab		car-sports
63404	f7ac		caravan
63405	f7ad		cctv
63406	f7ae		chart-donut
63407	f7af		chart-donut-variant
63408	f7b0		chart-line-variant
63409	f7b1		chili-hot
63410	f7b2		chili-medium
63411	f7b3		chili-mild
63412	f7b4		cloud-braces
63413	f7b5		cloud-tags
63414	f7b6		console-line
63415	f7b7		corn
63416	f7b8		currency-chf
63417	f7b9		currency-cny
63418	f7ba		currency-eth
63419	f7bb		currency-jpy
63420	f7bc		currency-krw
63421	f7bd		currency-sign
63422	f7be		currency-twd
63423	f7bf		desktop-classic
63424	f7c0		dip-switch
63425	f7c1		donkey
63426	f7c2		dots-horizontal-circle
63427	f7c3		dots-vertical-circle
63428	f7c4		ear-hearing
63429	f7c5		elephant
63430	f7c6		eventbrite
63431	f7c7		food-croissant
63432	f7c8		forklift
63433	f7c9		fuel
63434	f7ca		gesture
63435	f7cb		google-analytics
63436	f7cc		google-assistant
63437	f7cd		headphones-off
63438	f7ce		high-definition
63439	f7cf		home-assistant
63440	f7d0		home-automation
63441	f7d1		home-circle
63442	f7d2		language-go
63443	f7d3		language-r
63444	f7d4		lava-lamp
63445	f7d5		led-strip
63446	f7d6		locker
63447	f7d7		locker-multiple
63448	f7d8		map-marker-outline
63449	f7d9		metronome
63450	f7da		metronome-tick
63451	f7db		micro-sd
63452	f7dc		mixer
63453	f7dd		movie-roll
63454	f7de		mushroom
63455	f7df		mushroom-outline
63456	f7e0		nintendo-switch
63457	f7e1		null
63458	f7e2		passport
63459	f7e3		periodic-table-co2
63460	f7e4		pipe
63461	f7e5		pipe-disconnected
63462	f7e6		power-socket-eu
63463	f7e7		power-socket-uk
63464	f7e8		power-socket-us
63465	f7e9		rice
63466	f7ea		ring
63467	f7eb		sass
63468	f7ec		send-secure
63469	f7ed		soy-sauce
63470	f7ee		standard-definition
63471	f7ef		surround-sound-2-0
63472	f7f0		surround-sound-3-1
63473	f7f1		surround-sound-5-1
63474	f7f2		surround-sound-7-1
63475	f7f3		television-classic
63476	f7f4		textbox-password
63477	f7f5		thought-bubble
63478	f7f6		thought-bubble-outline
63479	f7f7		trackpad
63480	f7f8		ultra-high-definition
63481	f7f9		van-passenger
63482	f7fa		van-utility
63483	f7fb		vanish
63484	f7fc		video-3d
63485	f7fd		wall
63486	f7fe		xmpp
63487	f7ff		account-multiple-plus-outline
63488	f800		account-plus-outline
63489	f801		google-allo
63490	f802		artist
63491	f803		atlassian
63492	f804		azure
63493	f805		basketball
63494	f806		battery-charging-wireless
63495	f807		battery-charging-wireless-10
63496	f808		battery-charging-wireless-20
63497	f809		battery-charging-wireless-30
63498	f80a		battery-charging-wireless-40
63499	f80b		battery-charging-wireless-50
63500	f80c		battery-charging-wireless-60
63501	f80d		battery-charging-wireless-70
63502	f80e		battery-charging-wireless-80
63503	f80f		battery-charging-wireless-90
63504	f810		battery-charging-wireless-alert
63505	f811		battery-charging-wireless-outline
63506	f812		bitcoin
63507	f813		briefcase-outline
63508	f814		cellphone-wireless
63509	f815		clover
63510	f816		comment-question
63511	f817		content-save-outline
63512	f818		delete-restore
63513	f819		door
63514	f81a		door-closed
63515	f81b		door-open
63516	f81c		fan-off
63517	f81d		file-percent
63518	f81e		finance
63519	f81f		flash-circle
63520	f820		floor-plan
63521	f821		forum-outline
63522	f822		golf
63523	f823		google-home
63524	f824		guy-fawkes-mask
63525	f825		home-account
63526	f826		home-heart
63527	f827		hot-tub
63528	f828		hulu
63529	f829		ice-cream
63530	f82a		image-off
63531	f82b		karate
63532	f82c		ladybug
63533	f82d		notebook
63534	f82e		phone-return
63535	f82f		poker-chip
63536	f830		shape
63537	f831		shape-outline
63538	f832		ship-wheel
63539	f833		soccer-field
63540	f834		table-column
63541	f835		table-of-contents
63542	f836		table-row
63543	f837		table-settings
63544	f838		television-box
63545	f839		television-classic-off
63546	f83a		television-off
63547	f83b		towing
63548	f83c		upload-multiple
63549	f83d		video-4k-box
63550	f83e		video-input-antenna
63551	f83f		video-input-component
63552	f840		video-input-hdmi
63553	f841		video-input-svideo
63554	f842		view-dashboard-variant
63555	f843		vuejs
63556	f844		xamarin
63557	f845		xamarin-outline
63558	f846		youtube-creator-studio
63559	f847		youtube-gaming
63560	f848		account-group
63561	f849		accusoft
63562	f84a		airport
63563	f84b		arrow-collapse-horizontal
63564	f84c		arrow-collapse-vertical
63565	f84d		arrow-expand-horizontal
63566	f84e		arrow-expand-vertical
63567	f84f		augmented-reality
63568	f850		badminton
63569	f851		baseball
63570	f852		baseball-bat
63571	f853		bottle-wine
63572	f854		check-outline
63573	f855		checkbox-intermediate
63574	f856		chess-king
63575	f857		chess-knight
63576	f858		chess-pawn
63577	f859		chess-queen
63578	f85a		chess-rook
63579	f85b		chess-bishop
63580	f85c		clipboard-pulse
63581	f85d		clipboard-pulse-outline
63582	f85e		comment-multiple
63583	f85f		comment-text-multiple
63584	f860		comment-text-multiple-outline
63585	f861		crane
63586	f862		curling
63587	f863		currency-bdt
63588	f864		currency-kzt
63589	f865		database-search
63590	f866		dice-d12
63591	f867		docker
63592	f868		doorbell-video
63593	f869		ethereum
63594	f86a		eye-plus
63595	f86b		eye-plus-outline
63596	f86c		eye-settings
63597	f86d		eye-settings-outline
63598	f86e		file-question
63599	f86f		folder-network
63600	f870		function-variant
63601	f871		garage-alert
63602	f872		gauge-empty
63603	f873		gauge-full
63604	f874		gauge-low
63605	f875		glass-wine
63606	f876		graphql
63607	f877		high-definition-box
63608	f878		hockey-puck
63609	f879		hockey-sticks
63610	f87a		home-alert
63611	f87b		image-plus
63612	f87c		jquery
63613	f87d		lifebuoy
63614	f87e		mixed-reality
63615	f87f		nativescript
63616	f880		onepassword
63617	f881		patreon
63618	f882		paypal
63619	f883		peace
63620	f884		phone-rotate-landscape
63621	f885		phone-rotate-portrait
63622	f886		pier
63623	f887		pier-crane
63624	f888		pipe-leak
63625	f889		piston
63626	f88a		play-network
63627	f88b		reminder
63628	f88c		room-service
63629	f88d		salesforce
63630	f88e		security-account
63631	f88f		teach
63632	f890		thermostat-box
63633	f891		tractor
63634	f892		vector-ellipse
63635	f893		virtual-reality
63636	f894		watch-export-variant
63637	f895		watch-import-variant
63638	f896		watch-variant
63639	f897		weather-hurricane
63640	f898		account-heart
63641	f899		alien
63642	f89a		anvil
63643	f89b		battery-charging-10
63644	f89c		battery-charging-50
63645	f89d		battery-charging-70
63646	f89e		battery-charging-outline
63647	f89f		bed-empty
63648	f8a0		border-all-variant
63649	f8a1		border-bottom-variant
63650	f8a2		border-left-variant
63651	f8a3		border-none-variant
63652	f8a4		border-right-variant
63653	f8a5		border-top-variant
63654	f8a6		calendar-edit
63655	f8a7		clipboard-check-outline
63656	f8a8		console-network
63657	f8a9		file-compare
63658	f8aa		fire-truck
63659	f8ab		folder-key
63660	f8ac		folder-key-network
63661	f8ad		gpu
63662	f8ae		home-currency-usd
63663	f8af		inbox-multiple
63664	f8b0		language-lua
63665	f8b1		lock-smart
63666	f8b2		microphone-minus
63667	f8b3		microphone-plus
63668	f8b4		palette-swatch
63669	f8b5		periodic-table
63670	f8b6		pickaxe
63671	f8b7		qrcode-edit
63672	f8b8		remote-desktop
63673	f8b9		sausage
63674	f8ba		settings-outline
63675	f8bb		signal-cellular-1
63676	f8bc		signal-cellular-2
63677	f8bd		signal-cellular-3
63678	f8be		signal-cellular-outline
63679	f8bf		ssh
63680	f8c0		swap-horizontal-variant
63681	f8c1		swap-vertical-variant
63682	f8c2		tooth
63683	f8c3		train-variant
63684	f8c4		account-multiple-check
63685	f8c5		amazon-alexa
63686	f8c6		arch
63687	f8c7		axe
63688	f8c8		bullseye-arrow
63689	f8c9		bus-clock
63690	f8ca		camera-account
63691	f8cb		camera-image
63692	f8cc		car-limousine
63693	f8cd		cards-club
63694	f8ce		cards-diamond
63695	f8cf		cards-heart
63696	f8d0		cards-spade
63697	f8d1		cellphone-text
63698	f8d2		cellphone-message
63699	f8d3		chart-multiline
63700	f8d4		circle-edit-outline
63701	f8d5		cogs
63702	f8d6		credit-card-settings
63703	f8d7		death-star
63704	f8d8		death-star-variant
63705	f8d9		debian
63706	f8da		fedora
63707	f8db		file-undo
63708	f8dc		floor-lamp
63709	f8dd		folder-edit
63710	f8de		format-columns
63711	f8df		freebsd
63712	f8e0		gate-and
63713	f8e1		gate-nand
63714	f8e2		gate-nor
63715	f8e3		gate-not
63716	f8e4		gate-or
63717	f8e5		gate-xnor
63718	f8e6		gate-xor
63719	f8e7		gentoo
63720	f8e8		globe-model
63721	f8e9		hammer
63722	f8ea		home-lock
63723	f8eb		home-lock-open
63724	f8ec		linux-mint
63725	f8ed		lock-alert
63726	f8ee		lock-question
63727	f8ef		map-marker-distance
63728	f8f0		midi
63729	f8f1		midi-port
63730	f8f2		nas
63731	f8f3		network-strength-1
63732	f8f4		network-strength-1-alert
63733	f8f5		network-strength-2
63734	f8f6		network-strength-2-alert
63735	f8f7		network-strength-3
63736	f8f8		network-strength-3-alert
63737	f8f9		network-strength-4
63738	f8fa		network-strength-4-alert
63739	f8fb		network-strength-off
63740	f8fc		network-strength-off-outline
63741	f8fd		network-strength-outline
63742	f8fe		play-speed
63743	f8ff		playlist-edit
63744	f900	豈	power-cycle
63745	f901	更	power-off
63746	f902	車	power-on
63747	f903	賈	power-sleep
63748	f904	滑	power-socket-au
63749	f905	串	power-standby
63750	f906	句	rabbit
63751	f907	龜	robot-vacuum-variant
63752	f908	龜	satellite-uplink
63753	f909	契	scanner-off
63754	f90a	金	slackware
63755	f90b	喇	square-edit-outline
63756	f90c	奈	steam-box
63757	f90d	懶	steering-off
63758	f90e	癩	table-search
63759	f90f	羅	tag-minus
63760	f910	蘿	test-tube-empty
63761	f911	螺	test-tube-off
63762	f912	裸	ticket-outline
63763	f913	邏	track-light
63764	f914	樂	transition
63765	f915	洛	transition-masked
63766	f916	烙	tumble-dryer
63767	f917	珞	tumblr-box
63768	f918	落	video-account
63769	f919	酪	video-image
63770	f91a	駱	video-stabilization
63771	f91b	亂	wall-sconce
63772	f91c	卵	wall-sconce-flat
63773	f91d	欄	wall-sconce-variant
63774	f91e	爛	wifi-strength-1
63775	f91f	蘭	wifi-strength-1-alert
63776	f920	鸞	wifi-strength-1-lock
63777	f921	嵐	wifi-strength-2
63778	f922	濫	wifi-strength-2-alert
63779	f923	藍	wifi-strength-2-lock
63780	f924	襤	wifi-strength-3
63781	f925	拉	wifi-strength-3-alert
63782	f926	臘	wifi-strength-3-lock
63783	f927	蠟	wifi-strength-4
63784	f928	廊	wifi-strength-4-alert
63785	f929	朗	wifi-strength-4-lock
63786	f92a	浪	wifi-strength-alert-outline
63787	f92b	狼	wifi-strength-lock-outline
63788	f92c	郎	wifi-strength-off
63789	f92d	來	wifi-strength-off-outline
63790	f92e	冷	wifi-strength-outline
63791	f92f	勞	pin-off-outline
63792	f930	擄	pin-outline
63793	f931	櫓	share-outline
63794	f932	爐	trackpad-lock
